…
To answer that question, I calculate the results for every potential initial guess (each integer between 1 and 1000) and every potential actual amount of money (again, each integer between 1 and 1000). This results in 1,000,000 different potential game states. From there, we can calculate the average winnings for each initial guess. These average winnings are the expected value, or what we might expect to win if we always use that amount for the initial guess.

In order to do this in R, I use the Vectorize function to expand my original function to work with multiple game states.

min_val <- 1
max_val <- 1000
actual_vals <- min_val:max_val
guess_vals <- min_val:max_val

data <- expand.grid(actual = actual_vals, guess = guess_vals) %>%
    tbl_df
data

## # A tibble: 1,000,000 x 2
##    actual guess
##     <int> <int>
##  1      1     1
##  2      2     1
##  3      3     1
##  4      4     1
##  5      5     1
##  6      6     1
##  7      7     1
##  8      8     1
##  9      9     1
## 10     10     1
## # ... with 999,990 more rows

result <- with(data, Vectorize(guess_money)(actual = actual,
                                            initial = guess,
                                            min_val = min_val,
                                            max_val = max_val))
  
both <- bind_cols(data, t(result) %>%
                    as.data.frame)
both

## # A tibble: 1,000,000 x 4
##    actual guess   win round
##     <int> <int> <dbl> <dbl>
##  1      1     1     1     1
##  2      2     1     0     9
##  3      3     1     0     9
##  4      4     1     1     9
##  5      5     1     0     9
##  6      6     1     0     9
##  7      7     1     0     9
##  8      8     1     1     8
##  9      9     1     0     9
## 10     10     1     0     9
## # ... with 999,990 more rows

Now that we have all the potential outcomes of the game, I can calculate the expected winnings for each initial guess and find the best starting point.

exp_val <- both %>%
  group_by(guess) %>%
  summarize(win_rate = mean(win),
            exp_val = mean(actual * win)) %>%
  ungroup
exp_val

## # A tibble: 1,000 x 3
##    guess win_rate exp_val
##    <int>    <dbl>   <dbl>
##  1     1     0.26     128
##  2     2     0.26     128
##  3     3     0.26     128
##  4     4     0.26     128
##  5     5     0.26     128
##  6     6     0.26     128
##  7     7     0.26     129
##  8     8     0.26     129
##  9     9     0.26     129
## 10    10     0.26     129
## # ... with 990 more rows
…
