…
This applies to all cutpoints, as long as both players select the same cutpoint.

cutpoints <- seq(0, 1, by = .01)
results <- lapply(cutpoints,
                  function(cutpoint) sum(cutoff(p1, cutpoint = cutpoint) >
                                           cutoff(p2, cutpoint = cutpoint))) %>%
  unlist

results_full <- data_frame(cutpoint = cutpoints,
                           win = results,
                           win_prop = win / n_draw)
results_full

## # A tibble: 101 x 3
##    cutpoint   win win_prop
##       <dbl> <int>    <dbl>
##  1     0.00 49849   0.4985
##  2     0.01 49846   0.4985
##  3     0.02 49897   0.4990
##  4     0.03 49896   0.4990
##  5     0.04 49923   0.4992
##  6     0.05 49930   0.4993
##  7     0.06 49959   0.4996
##  8     0.07 49965   0.4996
##  9     0.08 50011   0.5001
## 10     0.09 50051   0.5005
## # ... with 91 more rows
…
Simulation Solution

We can also use R to find this solution via Monte Carlo simulation. This I solved for myself. Essentially we do a grid search over possible combinations of two player cutpoints and find the values which leave each player winning as close to 50% of the rounds as possible.

cut_lite <- seq(0, 1, by = .025)

cut_combo <- expand.grid(cut_lite, cut_lite) %>%
  tbl_df %>%
  rename(cut1 = Var1, cut2 = Var2) %>%
  mutate(p1_win = apply(., 1, FUN = function(x) cutoff_2(p1, p2, cut1 = x[1], cut2 = x[2])),
         p1_prop = p1_win / n_draw)
cut_combo

## # A tibble: 1,681 x 4
##     cut1  cut2 p1_win p1_prop
##    <dbl> <dbl>  <int>   <dbl>
##  1 0.000     0  49849  0.4985
##  2 0.025     0  51071  0.5107
##  3 0.050     0  52301  0.5230
##  4 0.075     0  53432  0.5343
##  5 0.100     0  54427  0.5443
##  6 0.125     0  55381  0.5538
##  7 0.150     0  56270  0.5627
##  8 0.175     0  57164  0.5716
##  9 0.200     0  57962  0.5796
## 10 0.225     0  58657  0.5866
## # ... with 1,671 more rows
…
